<svg xmlns="http://www.w3.org/2000/svg" width="89" height="38" viewBox="0 0 89 38">
    <g fill="none" fill-rule="nonzero">
        <path fill="#c2c2c2" d="M10.306 0H85a4 4 0 0 1 3.915 4.823l-6.306 30A4 4 0 0 1 78.694 38H4a4 4 0 0 1-3.915-4.823l6.306-30A4 4 0 0 1 10.306 0z"/>
        <path fill="#FFF" d="M22.639 28.378c-1.638 0-3.051-.274-4.239-.823-1.188-.55-2.097-1.337-2.727-2.363-.63-1.026-.945-2.232-.945-3.618 0-.576.072-1.242.216-1.998L17.05 9.1h5.346l-2.079 10.395a7.62 7.62 0 0 0-.162 1.485c0 1.98 1.044 2.97 3.132 2.97 1.134 0 2.03-.346 2.687-1.04.657-.693 1.147-1.831 1.471-3.415L29.524 9.1h5.265l-2.133 10.719c-1.152 5.706-4.491 8.559-10.017 8.559zM38.434 9.1h8.208c1.944 0 3.627.32 5.049.959 1.422.639 2.515 1.556 3.28 2.754.766 1.197 1.148 2.605 1.148 4.225 0 2.196-.5 4.122-1.498 5.778-1 1.656-2.39 2.934-4.172 3.834-1.782.9-3.825 1.35-6.129 1.35h-9.666l3.78-18.9zm6.048 14.634c1.296 0 2.416-.274 3.361-.824a5.376 5.376 0 0 0 2.147-2.268c.486-.963.729-2.056.729-3.28 0-1.278-.396-2.263-1.188-2.956-.792-.694-1.953-1.04-3.483-1.04h-3.132l-2.052 10.368h3.618zm19.521 4.644a17.07 17.07 0 0 1-4.455-.567c-1.404-.378-2.547-.864-3.429-1.458l2.106-3.996a11.68 11.68 0 0 0 3.051 1.39c1.08.316 2.16.473 3.24.473 1.026 0 1.822-.148 2.39-.445.567-.298.85-.707.85-1.229 0-.45-.256-.801-.77-1.053-.513-.252-1.309-.522-2.389-.81-1.224-.324-2.241-.652-3.051-.985a5.449 5.449 0 0 1-2.093-1.526c-.585-.684-.877-1.584-.877-2.7 0-1.35.369-2.533 1.107-3.55.738-1.018 1.791-1.805 3.159-2.363 1.368-.558 2.97-.837 4.806-.837 1.35 0 2.61.14 3.78.418 1.17.28 2.178.68 3.024 1.202l-1.944 3.969a8.909 8.909 0 0 0-2.444-1.066 10.369 10.369 0 0 0-2.74-.365c-1.062 0-1.894.171-2.498.513-.603.342-.904.783-.904 1.323 0 .468.261.828.783 1.08.522.252 1.332.522 2.43.81 1.224.306 2.236.621 3.037.945a5.35 5.35 0 0 1 2.066 1.485c.576.666.864 1.539.864 2.619 0 1.332-.373 2.506-1.12 3.523-.748 1.018-1.81 1.805-3.186 2.363-1.378.558-2.975.837-4.793.837z"/>
    </g>
</svg>
